[{
	"Name":"Kilogram",
	"Symbol":"Kg",
	"isSIUnit":"true",
	"SIConversionFactor":"1.000"
},

{
	"Name":"Gram",
	"Symbol":"g",
	"isSIUnit":"false",
	"SIConversionFactor":"0.001"
},

{
	"Name":"Milligram",
	"Symbol":"mg",
	"isSIUnit":"false",
	"SIConversionFactor":"0.000001"
},

{
	"Name":"Pound",
	"Symbol":"lb",
	"isSIUnit":"false",
	"SIConversionFactor":"0.453"
},

{
	"Name":"Ounce",
	"Symbol":"oz",
	"isSIUnit":"false",
	"SIConversionFactor":"0.02835"
}]